I106473
I106474
I106475
I106476
I106477
I106478
I106479
I106480
I106481
I106482
I106483
I106484
I106485
I106486
I106487
I106488
I106551
I106552
I106553
I106554
I106555
I106556
I106557
I106558
I106559
I106560
I106561
I106562
I106563
I106564
I106565
I106566
I106567
I106568
I106569
I106570
I106571
I106572
I106573
I106574
I106575
I106576
I106577
I106578
I106579
I106580
I106581
I106582
I106585
I106586
I106587
I106588
I106589
I106590
I106601
I106602
I106603
I106604
I106605
I106606
I106607
I106608
I106721
I106722
I108001
I108002
I108003
I108004
I108005
I108006
I108007
I108008
I108009
I108010
I108011
I108012
I108013
I108014
I108015
I108016
I108017
I108018
I108019
I108020
I108021
I108022
I108023
I108024
I108025
I108026
I108027
I108028
I108029
I108030
I108031
I108032
I108033
I108034
I108035
I108036
I108037
I108038
I108039
I108040
I108041
I108042
I108043
I108044
I108045
I108046
I108047
I108048
I108049
I108050
I108051
I108052
I108053
I108054
I108055
I108056
I108057
I108058
I108059
I108060
I108061
I108062
I108063
I108064
I108065
I108066
I108067
I108068
I108069
I108070
I108071
I108072
I108073
I108074
I108075
I108076
I108077
I108078
I108079
I108080
I108713
I108714
I108715
I108716
I108717
I108718
I110011
I110012
I110017
I110018
I250200
I250201
I250202
I250203
I250204
I250205
I250206
I250207
I250208
I250209
I250210
I250211
I250212
I250213
I250214
I250215
I250216
I250217
I250218
I250219
I250220
I250221
I250222
I250223
I250224
I250225
I250226
I250227
I250228
I250229
I250230
I250231
I250232
I250233
I250234
I250235
I250236
I250237
I250238
I250239
I250240
I250241
I250242
I250243
I250244
I250245
I250246
I250247
I250248
I250249
I250250
I250251
I250252
I250253
I250254
I250255
I250256
I250257
I250258
I250259
I37745
I37746
I37747
I37748
I37753
I37754
I37755
I37756
I37757
I37758
I37759
I37760
I37761
I37762
I37763
I37764
I37765
I37766
I37767
I37768
I37769
I37770
I37771
I37772
I37773
I37774
I37777
I37778
I37779
I37780
I37781
I37782
I37785
I37786
I37789
I37790
I37791
I37792
I37793
I37794
I37795
I37796
I37797
I37798
I37799
I37800
I37801
I37802
I37803
I37804
I37805
I37806
I37807
I37808
I37811
I37812
I37815
I37816
I37817
I37818
I37819
I37820
I37821
I37822
I37823
I37824
I37825
I37826
I37827
I37828
I37829
I37830
I37831
I37832
I37833
I37834
I37835
I37837
I37838
I37839
I37841
I37842
I37843
I37845
I37846
I37847
I37849
I37850
I37851
I37853
I37854
I37855
I37857
I37858
I37859
I37861
I37862
I37863
